R for Research - 9 Read-Write Files
…
9.4.2 Reading Stata files

The data have been collected from the US Federal Reserve System website located at this url

The 2019 Survey of Consumer Finances (SCF) is the most recent survey conducted. Below are links to the bulletin article, interactive chartbook, historical bulletin tables, full public dataset, extract dataset, replicate weight files, and documentation.

Please visit the page to learn more about the data and the survey.

df_stata = read_dta('data/scfp2019.dta')

df_stata

# A tibble: 28,885 × 351
     yy1    y1   wgt hhsex   age agecl  educ  edcl married  kids    lf lifecl
   <dbl> <dbl> <dbl> <dbl> <dbl> <dbl> <dbl> <dbl>   <dbl> <dbl> <dbl>  <dbl>
 1     1    11 6120.     2    75     6    12     4       2     0     1      5
 2     1    12 4712.     2    75     6    12     4       2     0     1      5
 3     1    13 5145.     2    75     6    12     4       2     0     1      5
 4     1    14 5298.     2    75     6    12     4       2     0     1      5
 5     1    15 4762.     2    75     6    12     4       2     0     1      5
 6     2    21 3790.     1    50     3     8     2       1     3     1      3
 7     2    22 3799.     1    50     3     8     2       1     3     1      3
 8     2    23 3799.     1    50     3     8     2       1     3     1      3
 9     2    24 3788.     1    50     3     8     2       1     3     1      3
10     2    25 3793.     1    50     3     8     2       1     3     1      3
# … with 28,875 more rows, and 339 more variables: famstruct <dbl>,
#   racecl <dbl>, racecl4 <dbl>, race <dbl>, occat1 <dbl>, occat2 <dbl>,
#   indcat <dbl>, foodhome <dbl>, foodaway <dbl>, fooddelv <dbl>, rent <dbl>,
#   income <dbl>, wageinc <dbl>, bussefarminc <dbl>, intdivinc <dbl>,
#   kginc <dbl>, ssretinc <dbl>, transfothinc <dbl>, penacctwd <dbl>,
#   norminc <dbl>, wsaved <dbl>, saved <dbl>, savres1 <dbl>, savres2 <dbl>,
#   savres3 <dbl>, savres4 <dbl>, savres5 <dbl>, savres6 <dbl>, …

9.4.3 Reading SAS files

Principles of Econometrics, 5th Edition provides many downloadable SAS data sets from their website.

df_sas = read_sas('data/profits.sas7bdat')
df_sas

# A tibble: 163 × 3
   PROFITS   QTR  YEAR
     <dbl> <dbl> <dbl>
 1    29.8     1  1959
 2    32.5     2  1959
 3    29.2     3  1959
 4    28.6     4  1959
 5    31.5     1  1960
 6    29.2     2  1960
 7    27.9     3  1960
 8    26.9     4  1960
 9    26.2     1  1961
10    27.7     2  1961
# … with 153 more rows
…
