R for Research - 8 Tidy Data Analysis
…
drv
  4   f   r 
103 106  25 

There are three types of vehicles, four-wheel drive (represented by drv = 4), front-wheel drive (drv = f) and rear-wheel drive (drv = r).

To select only the front-wheel drive vehicles, we use filter() function with the condition that the drv == 'f'. Notice that the variable name drv doesn’t need to be wrapped with quotation, but the actual value of the variable must be put within quotation. Either single or double quotation would work.

mpg %>% 
  filter(drv == 'f')

# A tibble: 106 × 11
   manufacturer model  displ  year   cyl trans     drv     cty   hwy fl    class
   <chr>        <chr>  <dbl> <int> <int> <chr>     <chr> <int> <int> <chr> <chr>
 1 audi         a4       1.8  1999     4 auto(l5)  f        18    29 p     comp…
 2 audi         a4       1.8  1999     4 manual(m… f        21    29 p     comp…
 3 audi         a4       2    2008     4 manual(m… f        20    31 p     comp…
 4 audi         a4       2    2008     4 auto(av)  f        21    30 p     comp…
 5 audi         a4       2.8  1999     6 auto(l5)  f        16    26 p     comp…
 6 audi         a4       2.8  1999     6 manual(m… f        18    26 p     comp…
 7 audi         a4       3.1  2008     6 auto(av)  f        18    27 p     comp…
 8 chevrolet    malibu   2.4  1999     4 auto(l4)  f        19    27 r     mids…
 9 chevrolet    malibu   2.4  2008     4 auto(l4)  f        22    30 r     mids…
10 chevrolet    malibu   3.1  1999     6 auto(l4)  f        18    26 r     mids…
# … with 96 more rows
…
# A tibble: 4 × 11
  manufacturer model      displ  year   cyl trans  drv     cty   hwy fl    class
  <chr>        <chr>      <dbl> <int> <int> <chr>  <chr> <int> <int> <chr> <chr>
1 volkswagen   jetta        2.5  2008     5 auto(… f        21    29 r     comp…
2 volkswagen   jetta        2.5  2008     5 manua… f        21    29 r     comp…
3 volkswagen   new beetle   2.5  2008     5 manua… f        20    28 r     subc…
4 volkswagen   new beetle   2.5  2008     5 auto(… f        20    29 r     subc…

How about the vehicles that are either front-wheel drive or with 5 cylinders?

mpg %>% 
  filter(drv == 'f' | cyl == 5)

# A tibble: 106 × 11
   manufacturer model  displ  year   cyl trans     drv     cty   hwy fl    class
   <chr>        <chr>  <dbl> <int> <int> <chr>     <chr> <int> <int> <chr> <chr>
 1 audi         a4       1.8  1999     4 auto(l5)  f        18    29 p     comp…
 2 audi         a4       1.8  1999     4 manual(m… f        21    29 p     comp…
 3 audi         a4       2    2008     4 manual(m… f        20    31 p     comp…
 4 audi         a4       2    2008     4 auto(av)  f        21    30 p     comp…
 5 audi         a4       2.8  1999     6 auto(l5)  f        16    26 p     comp…
 6 audi         a4       2.8  1999     6 manual(m… f        18    26 p     comp…
 7 audi         a4       3.1  2008     6 auto(av)  f        18    27 p     comp…
 8 chevrolet    malibu   2.4  1999     4 auto(l4)  f        19    27 r     mids…
 9 chevrolet    malibu   2.4  2008     4 auto(l4)  f        22    30 r     mids…
10 chevrolet    malibu   3.1  1999     6 auto(l4)  f        18    26 r     mids…
# … with 96 more rows
…
